<svg xmlns="http://www.w3.org/2000/svg" width="22" height="22" viewbox="0 0 22 22">
  <path fill="#000" fill-rule="evenodd" d="M16.16 17.725c-3.906 3.128-9.624 2.882-13.246-.74C-.97 13.1-.97 6.8 2.914 2.915 6.8-.97 13.1-.97 16.986 2.915c3.62 3.62 3.867 9.34.74 13.246l3.95 3.957c.432.43.432 1.13 0 1.563-.432.43-1.132.43-1.563 0l-3.952-3.95zm-.738-2.303c3.022-3.022 3.022-7.922 0-10.944-3.022-3.022-7.922-3.022-10.944 0-3.022 3.022-3.022 7.922 0 10.944 3.022 3.022 7.922 3.022 10.944 0z"/>
</svg>
