<svg id="Слой_1" data-name="Слой 1" xmlns="http://www.w3.org/2000/svg" width="82" height="89" viewBox="0 0 82 89">
  <defs>
    <style>
      .cls-1 {
        fill: none;
        stroke: #e82828;
        stroke-width: 3px;
      }

      .cls-2 {
        fill: #e82828;
      }
    </style>
  </defs>
  <title>how-card-2</title>
  <rect id="Rectangle-35" class="cls-1" x="1.5" y="49.5" width="79" height="7"/>
  <rect id="Rectangle-35-Copy" class="cls-2" x="10" y="86" width="62" height="3"/>
  <rect id="Rectangle-36" class="cls-2" x="21.41" y="59.8" width="20" height="3" transform="translate(-26.44 23.92) rotate(-30)"/>
  <rect id="Rectangle-36-Copy-3" class="cls-2" x="40.41" y="69.8" width="20" height="3" transform="translate(-28.9 34.76) rotate(-30)"/>
  <rect id="Rectangle-36-Copy-5" class="cls-2" x="21.41" y="80.8" width="20" height="3" transform="translate(-36.94 26.73) rotate(-30)"/>
  <rect id="Rectangle-36-Copy" class="cls-2" x="48.91" y="51.3" width="3" height="20" transform="translate(-27.88 74.31) rotate(-60)"/>
  <rect id="Rectangle-36-Copy-2" class="cls-2" x="29.91" y="61.3" width="3" height="20" transform="translate(-46.04 62.85) rotate(-60)"/>
  <rect id="Rectangle-36-Copy-4" class="cls-2" x="48.91" y="72.3" width="3" height="20" transform="translate(-46.07 84.81) rotate(-60)"/>
  <circle id="Oval-12" class="cls-2" cx="41" cy="77" r="4"/>
  <circle id="Oval-12-Copy" class="cls-2" cx="22" cy="66" r="4"/>
  <circle id="Oval-12-Copy-2" class="cls-2" cx="60" cy="66" r="4"/>
  <path id="Combined-Shape" class="cls-2" d="M9.67,42H4a4,4,0,0,1-4-4V26H0a9,9,0,0,1,9-9H82V32h0A10,10,0,0,1,72,42H71.33A7,7,0,0,0,72,39V38.94A8,8,0,0,0,79,31V20H10a7,7,0,0,0-7,7H3V37a2,2,0,0,0,2,2H9A7,7,0,0,0,9.67,42Zm12.65,0A7,7,0,0,0,23,39H58a7,7,0,0,0,.67,3H22.33Z"/>
  <path id="Combined-Shape-2" data-name="Combined-Shape" class="cls-2" d="M36,0H73a9,9,0,0,1,9,9V20H17V19h0A19,19,0,0,1,36,0h0Zm0,3h0A16,16,0,0,0,20,19h0v1H79V9a6,6,0,0,0-6-6H36Z"/>
  <rect id="Rectangle-34-Copy" class="cls-2" x="40" y="1" width="3" height="19"/>
  <rect id="Rectangle-34-Copy-2" class="cls-2" x="59.16" y="0.94" width="3" height="19" transform="translate(0.09 21.38) rotate(-20)"/>
  <path id="Combined-Shape-3" data-name="Combined-Shape" class="cls-2" d="M16,48a9,9,0,1,1,9-9A9,9,0,0,1,16,48Zm0-3a6,6,0,1,0-6-6A6,6,0,0,0,16,45Z"/>
  <path id="Combined-Shape-Copy-2" class="cls-2" d="M65,48a9,9,0,1,1,9-9A9,9,0,0,1,65,48Zm0-3a6,6,0,1,0-6-6A6,6,0,0,0,65,45Z"/>
  <path id="Rectangle-34" class="cls-2" d="M2.5,25h6A1.5,1.5,0,0,1,10,26.5h0A1.5,1.5,0,0,1,8.5,28h-6A1.5,1.5,0,0,1,1,26.5H1A1.5,1.5,0,0,1,2.5,25Z"/>
  <path id="Rectangle-34-Copy-3" class="cls-2" d="M75.5,22h5A1.5,1.5,0,0,1,82,23.5h0A1.5,1.5,0,0,1,80.5,25h-5A1.5,1.5,0,0,1,74,23.5h0A1.5,1.5,0,0,1,75.5,22Z"/>
</svg>
